-------------------------------------------------------------------------------
Test set: fr.surnami.persistence.MongoDBConnectorTest
-------------------------------------------------------------------------------
Tests run: 3, Failures: 0, Errors: 0, Skipped: 0, Time elapsed: 0.793 sec
